$MeshFormat
2.2 0 8
$EndMeshFormat
$Nodes
195
1 -0.5767301381662864 -0.5562122576788032 0
2 -0.3884385923309021 -0.4342601520481781 0
3 -0.3704617491932508 -0.4438468263192586 0
4 0.1863023903006363 -0.9330939722562803 0
5 -1.464214943843042 -0.8893662750938636 0
6 -0.5938457466297696 -0.5634466472389534 0
7 0.2793404243170494 -1.07381076895821 0
8 -1.472940154914137 -0.9080454015999996 0
9 -1.484584673572828 -0.9301335003426884 0
10 -1.502564711833129 -0.9607554874400726 0
11 -1.529279724502434 -1.003614822131352 0
12 -1.564635335031929 -1.066097273673977 0
13 -1.596226327963192 -1.162829863800362 0
14 -1.601130114253433 -1.307860822440915 0
15 -1.576883577029986 -1.512693482383511 0
16 -1.460795978071046 -1.753979598005943 0
17 -1.26652522740841 -1.948334454411646 0
18 -1.030810134626052 -2.088822064591292 0
19 -0.7629219365196646 -2.149366655360518 0
20 -0.4881300766627735 -2.147707181393089 0
21 -0.228083489504507 -2.063422746593849 0
22 -0.01647445842951412 -1.888438903741078 0
23 0.1499121004831138 -1.680894464483304 0
24 0.2402912861135953 -1.505040339468987 0
25 0.2641276745771373 -1.367758247856113 0
26 0.268123792495819 -1.269682149523274 0
27 0.26950624680727 -1.200664822930932 0
28 0.2715095156879122 -1.152166903844977 0
29 0.2740321646328023 -1.118128957257775 0
30 0.2765673291004017 -1.09423794903552 0
31 -1.444411977531057 -0.8933651451230492 0
32 -1.425241479902378 -0.8991289239061134 0
33 -1.405338715278176 -0.8958702249674133 0
34 -1.3854082485503 -0.8898952523197753 0
35 -1.366506748962439 -0.8827352993433115 0
36 -1.348975813586623 -0.8730058250934108 0
37 -1.341048721607891 -0.862861486721858 0
38 -1.3218087114494 -0.866420755595658 0
39 -1.304437709910576 -0.8767592979171056 0
40 -1.28627942022625 -0.8874733106749765 0
41 -1.26763005153807 -0.8950830501345007 0
42 -1.250595241675789 -0.8911367217891266 0
43 -1.235375435080017 -0.8809056855360393 0
44 -1.218625194443214 -0.8701585772128396 0
45 -1.210558753958031 -0.8574804677483124 0
46 -1.197159339040741 -0.8424365820400875 0
47 -1.186470581253623 -0.8287731779741595 0
48 -1.175196689437353 -0.8155653533085406 0
49 -1.157367913297964 -0.8176021677669956 0
50 -1.137435624670315 -0.8209482528770586 0
51 -1.119795746021544 -0.8272544700685487 0
52 -1.099886233948537 -0.8283346539425969 0
53 -1.08050032522846 -0.8320588685958082 0
54 -1.064649990863297 -0.8406339605633454 0
55 -1.047814361452704 -0.8510232640366105 0
56 -1.0299320025355 -0.8561588644292749 0
57 -1.012471967514915 -0.8550320209684571 0
58 -0.9927355374138951 -0.8526273838952741 0
59 -0.9824964623360849 -0.8485940457054219 0
60 -0.9761576831420882 -0.8350544453028111 0
61 -0.9612942720493682 -0.823126779514824 0
62 -0.9498240124605583 -0.8136685791743192 0
63 -0.9371103910313622 -0.8002613824266976 0
64 -0.9222738044650357 -0.7889643938003645 0
65 -0.9136999658895388 -0.7743943096796291 0
66 -0.9117087684166055 -0.7571200025578588 0
67 -0.9029820094707569 -0.7418885048654033 0
68 -0.8907353720083432 -0.7316190891298312 0
69 -0.8760925759904153 -0.7204565435992467 0
70 -0.8702176727974424 -0.7046254457184702 0
71 -0.8562300539522713 -0.6924040711266524 0
72 -0.8396975716261256 -0.6860699797102463 0
73 -0.8226397468073845 -0.6847900688036594 0
74 -0.8041084896434568 -0.6790281676751933 0
75 -0.7863103735516261 -0.681361990476459 0
76 -0.7690614116347667 -0.682514695459311 0
77 -0.7490359434596953 -0.6806554565570347 0
78 -0.7288200889723789 -0.680853540356425 0
79 -0.7086208072431811 -0.6816205536153822 0
80 -0.6885805411841858 -0.684215543743694 0
81 -0.6686561511917692 -0.6876016304152697 0
82 -0.6484630424332221 -0.6881988267933005 0
83 -0.6281244247167607 -0.6867621050088606 0
84 -0.6081908739740387 -0.6834515649312795 0
85 -0.5889574337316571 -0.6773145702569979 0
86 -0.5703293037653661 -0.6694886184398953 0
87 -0.5513633487063543 -0.6627740610440038 0
88 -0.5331158149221147 -0.6545282532328023 0
89 -0.5206750409646654 -0.6470872086080852 0
90 -0.5099418829820666 -0.6312666434759138 0
91 -0.5274177176090451 -0.6241241429201069 0
92 -0.5446181631744089 -0.6139864441182407 0
93 -0.5617279712033497 -0.6038040563720986 0
94 -0.5778931674487758 -0.5928923078989843 0
95 -0.595016355666831 -0.5829042927478025 0
96 -0.5618254970974398 -0.5644982287654556 0
97 -0.5440708807421178 -0.5720282192745869 0
98 -0.5261078469784701 -0.5795770221442016 0
99 -0.5084057420414905 -0.5856368027120614 0
100 -0.4899641775158633 -0.591513868197742 0
101 -0.4714263132262337 -0.5980527535511968 0
102 -0.4534556331988762 -0.593692558401266 0
103 -0.4347086437989987 -0.5995869811852351 0
104 -0.4181237100872436 -0.6032442172519634 0
105 -0.400292319879278 -0.6047250138043201 0
106 -0.3824401566309492 -0.602117252013611 0
107 -0.3683781891577265 -0.5895064601353129 0
108 -0.3544402114002015 -0.5875367551109671 0
109 -0.3371674368282596 -0.5789973348986923 0
110 -0.3403788649728817 -0.5599371447563954 0
111 -0.3522124690537332 -0.5445175647358519 0
112 -0.3499213768576312 -0.525772789797112 0
113 -0.3480265188411202 -0.5181175400498957 0
114 -0.366550552326781 -0.5220621899199206 0
115 -0.3800935414409816 -0.5245547488661653 0
116 -0.3959942915965349 -0.5139182899030053 0
117 -0.3999679116323809 -0.5019682814998541 0
118 -0.3896667355355805 -0.4876688229903747 0
119 -0.4036710131181768 -0.4955046927421172 0
120 -0.3992220562655805 -0.4787185972472168 0
121 -0.3977160277189399 -0.4631389419143036 0
122 -0.3949120736296195 -0.4469284338895231 0
123 -0.3728269220275773 -0.4615546596821495 0
124 -0.3691849281243294 -0.4795470037691225 0
125 -0.3632605644358118 -0.4976551664971851 0
126 -0.3469037567960913 -0.5066136343080027 0
127 -0.3355452804999616 -0.5175352355746595 0
128 -0.3328500634074167 -0.5345474609789532 0
129 -0.3192489926009007 -0.5457082976130362 0
130 -0.305669716347 -0.5572001872434189 0
131 -0.2908716530174631 -0.563454754226045 0
132 -0.2762531446143147 -0.5694433618393412 0
133 -0.2595060405303211 -0.5766575525750642 0
134 -0.2523362636190066 -0.5862540991705623 0
135 -0.2492546795583769 -0.5992109173136004 0
136 -0.2396685435322771 -0.6084279355969079 0
137 -0.2313975384857616 -0.6233138360919337 0
138 -0.2317535807608253 -0.6275580254031861 0
139 -0.2378018136377941 -0.6335448883005084 0
140 -0.2280932308303072 -0.6509086518911352 0
141 -0.2093310442364752 -0.6496387905972898 0
142 -0.2003781184832752 -0.6416169465929057 0
143 -0.2035558017549209 -0.6558721393624146 0
144 -0.2096547295661218 -0.6739240161667458 0
145 -0.2118889320667127 -0.6901136453126214 0
146 -0.2128918497080643 -0.7097177469803088 0
147 -0.2127204038552447 -0.7267737209049862 0
148 -0.2088455474723874 -0.7459585648384131 0
149 -0.2086877197428077 -0.7659858527870168 0
150 -0.204664629649885 -0.7853661409628756 0
151 -0.2007181803135718 -0.8048426791796672 0
152 -0.1999469864619688 -0.8247808869894204 0
153 -0.1929048856961172 -0.8431319041354295 0
154 -0.1763793181655095 -0.8410571527341743 0
155 -0.1619993796033494 -0.8332349588024004 0
156 -0.1499929035279255 -0.8205838478887161 0
157 -0.144656556828705 -0.8046029602479935 0
158 -0.1356845565509025 -0.7870373358929174 0
159 -0.1336743318476938 -0.7674578582454716 0
160 -0.1284388284509516 -0.748599479962877 0
161 -0.1135915511567452 -0.7415234424600285 0
162 -0.09888868713761237 -0.7349119863653006 0
163 -0.08422725670210672 -0.7244339057229467 0
164 -0.06801038804572182 -0.7128609840912344 0
165 -0.05189826692756136 -0.7015441073046353 0
166 -0.03720817432865307 -0.6912502692919412 0
167 -0.02801630626298251 -0.6784438238426865 0
168 -0.01674038305751233 -0.6754525358958222 0
169 -0.009146526696569511 -0.6774359959779629 0
170 0.002191703088325636 -0.6764072327347035 0
171 0.01024705869074048 -0.6659903920211897 0
172 0.02261838411580568 -0.67636293989676 0
173 0.02781773486758117 -0.6871094722517639 0
174 0.03360251052338702 -0.6954258989050143 0
175 0.04432520954155687 -0.7023293657795092 0
176 0.04503603358880454 -0.7098493069915454 0
177 0.05468789266934242 -0.7193580044394542 0
178 0.05742746168505818 -0.7380374087268189 0
179 0.05995005340762145 -0.7479792921751395 0
180 0.06619550895713908 -0.7531803466987502 0
181 0.07687290324701515 -0.7470778933028799 0
182 0.08741438630162238 -0.7387845468396617 0
183 0.09630963979847783 -0.7400462185938715 0
184 0.1027839603028612 -0.7565021994101009 0
185 0.1096873810536053 -0.7742513367029846 0
186 0.1187236740454332 -0.7864715412534702 0
187 0.1213762981116245 -0.802248454883128 0
188 0.1235445400727015 -0.8187512466283079 0
189 0.1248352947398793 -0.8321713847618131 0
190 0.1234607712480262 -0.8503330111390535 0
191 0.1335281981416399 -0.8583187237869917 0
192 0.1470677272014649 -0.8698093096083216 0
193 0.1595746844282535 -0.8832708305532576 0
194 0.1666601582626909 -0.9017347635567475 0
195 0.1746365321224198 -0.9186095802562937 0
$EndNodes
$Elements
192
1 1 2 224 209 5 8
2 1 2 224 209 8 9
3 1 2 224 209 9 10
4 1 2 224 209 10 11
5 1 2 224 209 11 12
6 1 2 224 209 12 13
7 1 2 224 209 13 14
8 1 2 224 209 14 15
9 1 2 224 209 15 16
10 1 2 224 209 16 17
11 1 2 224 209 17 18
12 1 2 224 209 18 19
13 1 2 224 209 19 20
14 1 2 224 209 20 21
15 1 2 224 209 21 22
16 1 2 224 209 22 23
17 1 2 224 209 23 24
18 1 2 224 209 24 25
19 1 2 224 209 25 26
20 1 2 224 209 26 27
21 1 2 224 209 27 28
22 1 2 224 209 28 29
23 1 2 224 209 29 30
24 1 2 224 209 30 7
25 1 2 225 210 5 31
26 1 2 225 210 31 32
27 1 2 225 210 32 33
28 1 2 225 210 33 34
29 1 2 225 210 34 35
30 1 2 225 210 35 36
31 1 2 225 210 36 37
32 1 2 225 210 37 38
33 1 2 225 210 38 39
34 1 2 225 210 39 40
35 1 2 225 210 40 41
36 1 2 225 210 41 42
37 1 2 225 210 42 43
38 1 2 225 210 43 44
39 1 2 225 210 44 45
40 1 2 225 210 45 46
41 1 2 225 210 46 47
42 1 2 225 210 47 48
43 1 2 225 210 48 49
44 1 2 225 210 49 50
45 1 2 225 210 50 51
46 1 2 225 210 51 52
47 1 2 225 210 52 53
48 1 2 225 210 53 54
49 1 2 225 210 54 55
50 1 2 225 210 55 56
51 1 2 225 210 56 57
52 1 2 225 210 57 58
53 1 2 225 210 58 59
54 1 2 225 210 59 60
55 1 2 225 210 60 61
56 1 2 225 210 61 62
57 1 2 225 210 62 63
58 1 2 225 210 63 64
59 1 2 225 210 64 65
60 1 2 225 210 65 66
61 1 2 225 210 66 67
62 1 2 225 210 67 68
63 1 2 225 210 68 69
64 1 2 225 210 69 70
65 1 2 225 210 70 71
66 1 2 225 210 71 72
67 1 2 225 210 72 73
68 1 2 225 210 73 74
69 1 2 225 210 74 75
70 1 2 225 210 75 76
71 1 2 225 210 76 77
72 1 2 225 210 77 78
73 1 2 225 210 78 79
74 1 2 225 210 79 80
75 1 2 225 210 80 81
76 1 2 225 210 81 82
77 1 2 225 210 82 83
78 1 2 225 210 83 84
79 1 2 225 210 84 85
80 1 2 225 210 85 86
81 1 2 225 210 86 87
82 1 2 225 210 87 88
83 1 2 225 210 88 89
84 1 2 225 210 89 90
85 1 2 225 210 90 91
86 1 2 225 210 91 92
87 1 2 225 210 92 93
88 1 2 225 210 93 94
89 1 2 225 210 94 95
90 1 2 225 210 95 6
91 1 2 226 213 1 96
92 1 2 226 213 96 97
93 1 2 226 213 97 98
94 1 2 226 213 98 99
95 1 2 226 213 99 100
96 1 2 226 213 100 101
97 1 2 226 213 101 102
98 1 2 226 213 102 103
99 1 2 226 213 103 104
100 1 2 226 213 104 105
101 1 2 226 213 105 106
102 1 2 226 213 106 107
103 1 2 226 213 107 108
104 1 2 226 213 108 109
105 1 2 226 213 109 110
106 1 2 226 213 110 111
107 1 2 226 213 111 112
108 1 2 226 213 112 113
109 1 2 226 213 113 114
110 1 2 226 213 114 115
111 1 2 226 213 115 116
112 1 2 226 213 116 117
113 1 2 226 213 117 118
114 1 2 226 213 118 119
115 1 2 226 213 119 120
116 1 2 226 213 120 121
117 1 2 226 213 121 122
118 1 2 226 213 122 2
119 1 2 227 216 3 123
120 1 2 227 216 123 124
121 1 2 227 216 124 125
122 1 2 227 216 125 126
123 1 2 227 216 126 127
124 1 2 227 216 127 128
125 1 2 227 216 128 129
126 1 2 227 216 129 130
127 1 2 227 216 130 131
128 1 2 227 216 131 132
129 1 2 227 216 132 133
130 1 2 227 216 133 134
131 1 2 227 216 134 135
132 1 2 227 216 135 136
133 1 2 227 216 136 137
134 1 2 227 216 137 138
135 1 2 227 216 138 139
136 1 2 227 216 139 140
137 1 2 227 216 140 141
138 1 2 227 216 141 142
139 1 2 227 216 142 143
140 1 2 227 216 143 144
141 1 2 227 216 144 145
142 1 2 227 216 145 146
143 1 2 227 216 146 147
144 1 2 227 216 147 148
145 1 2 227 216 148 149
146 1 2 227 216 149 150
147 1 2 227 216 150 151
148 1 2 227 216 151 152
149 1 2 227 216 152 153
150 1 2 227 216 153 154
151 1 2 227 216 154 155
152 1 2 227 216 155 156
153 1 2 227 216 156 157
154 1 2 227 216 157 158
155 1 2 227 216 158 159
156 1 2 227 216 159 160
157 1 2 227 216 160 161
158 1 2 227 216 161 162
159 1 2 227 216 162 163
160 1 2 227 216 163 164
161 1 2 227 216 164 165
162 1 2 227 216 165 166
163 1 2 227 216 166 167
164 1 2 227 216 167 168
165 1 2 227 216 168 169
166 1 2 227 216 169 170
167 1 2 227 216 170 171
168 1 2 227 216 171 172
169 1 2 227 216 172 173
170 1 2 227 216 173 174
171 1 2 227 216 174 175
172 1 2 227 216 175 176
173 1 2 227 216 176 177
174 1 2 227 216 177 178
175 1 2 227 216 178 179
176 1 2 227 216 179 180
177 1 2 227 216 180 181
178 1 2 227 216 181 182
179 1 2 227 216 182 183
180 1 2 227 216 183 184
181 1 2 227 216 184 185
182 1 2 227 216 185 186
183 1 2 227 216 186 187
184 1 2 227 216 187 188
185 1 2 227 216 188 189
186 1 2 227 216 189 190
187 1 2 227 216 190 191
188 1 2 227 216 191 192
189 1 2 227 216 192 193
190 1 2 227 216 193 194
191 1 2 227 216 194 195
192 1 2 227 216 195 4
$EndElements
